[
  "The Renaissance",
  "Medieval Europe",
  "The Far East",
  "Deep Space",
  "Germany",
  "North America",
  "The Deepest Ocean",
  "Wall Street",
  "The 1920s",
  "The Far Future",
  "Mars",
  "19th Century America",
  "Ancient Greece",
  "Ancient Rome",
  "Ancient Egypt",
  "A Post apocalyptic world",
  "Dungeons",
  "Scotland",
  "Australia",
  "A War zone",
  "Europe",
  "Utopia",
  "Dystopia",
  "The Distant Past",
  "The Ocean",
  "A Forest",
  "The Sea",
  "A Submarine",
  "The North of England",
  "Victorian London",
  "Elizabethan London",
  "The Wild West",
  "The Civil War",
  "Heaven",
  "Hell",
  "Europa",
  "A Remote Island",
  "Medieval Europe",
  "The 1990s",
  "The Swinging 60s",
  "WW II",
  "WW I",
  "WW III",
  "A TV station",
  "Vietnam",
  "China",
  "The Congo",
  "The Supermarket",
  "The Museum",
  "The Library",
  "The Disco",
  "The Police Sation",
  "The Bazaar",
  "Italy",
  "Distant Past",
  "A Remote Island",
  "A New England City",
  "A University",
  "A far and distant land",
  "A world not too dissimilar to our own",
  "Gencon",
  "Essen",
  "Japan",
  "Haunted houses",
  "A fantasy land",
  "Heaven",
  "Hell"
]